{
  "results": [
    {
      "popularity": 725.223,
      "vote_count": 828,
      "video": false,
      "poster_path": "/8WUVHemHFH2ZIP6NWkwlHWsyrEL.jpg",
      "id": 338762,
      "adult": false,
      "backdrop_path": "/lP5eKh8WOcPysfELrUpGhHJGZEH.jpg",
      "original_language": "en",
      "original_title": "Bloodshot",
      "genre_ids": [
        28,
        878
      ],
      "title": "Bloodshot",
      "vote_average": 7.3,
      "overview": "After he and his wife are murdered, marine Ray Garrison is resurrected by a team of scientists. Enhanced with nanotechnology, he becomes a superhuman, biotech killing machine—'Bloodshot'. As Ray first trains with fellow super-soldiers, he cannot recall anything from his former life. But when his memories flood back and he remembers the man that killed both him and his wife, he breaks out of the facility to get revenge, only to discover that there's more to the conspiracy than he thought.",
      "release_date": "2020-02-20"
    },
    {
      "popularity": 318.531,
      "vote_count": 894,
      "video": false,
      "poster_path": "/4U7hpTK0XTQBKT5X60bKmJd05ha.jpg",
      "id": 570670,
      "adult": false,
      "backdrop_path": "/uZMZyvarQuXLRqf3xdpdMqzdtjb.jpg",
      "original_language": "en",
      "original_title": "The Invisible Man",
      "genre_ids": [
        27,
        878,
        53
      ],
      "title": "The Invisible Man",
      "vote_average": 7.1,
      "overview": "When Cecilia's abusive ex takes his own life and leaves her his fortune, she suspects his death was a hoax. As a series of coincidences turn lethal, Cecilia works to prove that she is being hunted by someone nobody can see.",
      "release_date": "2020-02-26"
    },
    {
      "popularity": 213.017,
      "vote_count": 882,
      "video": false,
      "poster_path": "/xnjvwfDulnOCy8qtYX0iqydmMhk.jpg",
      "id": 448119,
      "adult": false,
      "backdrop_path": "/xcUf6yIheo78btFqihlRLftdR3M.jpg",
      "original_language": "en",
      "original_title": "Dolittle",
      "genre_ids": [
        12,
        35,
        14,
        10751
      ],
      "title": "Dolittle",
      "vote_average": 6.8,
      "overview": "After losing his wife seven years earlier, the eccentric Dr. John Dolittle, famed doctor and veterinarian of Queen Victoria’s England, hermits himself away behind the high walls of Dolittle Manor with only his menagerie of exotic animals for company. But when the young queen falls gravely ill, a reluctant Dolittle is forced to set sail on an epic adventure to a mythical island in search of a cure, regaining his wit and courage as he crosses old adversaries and discovers wondrous creatures.",
      "release_date": "2020-01-01"
    },
    {
      "popularity": 206.314,
      "vote_count": 1018,
      "video": false,
      "poster_path": "/8ZX18L5m6rH5viSYpRnTSbb9eXh.jpg",
      "id": 619264,
      "adult": false,
      "backdrop_path": "/uNiTCaBIpw4vrRGEFKFm3VSt8Sm.jpg",
      "original_language": "es",
      "original_title": "El hoyo",
      "genre_ids": [
        18,
        27,
        878,
        53
      ],
      "title": "The Platform",
      "vote_average": 7.1,
      "overview": "A mysterious place, an indescribable prison, a deep hole. Two inmates living on each level. An unknown number of levels. A descending platform containing food for all of them. An inhuman fight for survival, but also an opportunity for solidarity…",
      "release_date": "2019-11-08"
    },
    {
      "popularity": 195.888,
      "vote_count": 478,
      "video": false,
      "poster_path": "/3rQx8kJNfIZnlbILHUbRzK2HOng.jpg",
      "id": 508439,
      "adult": false,
      "backdrop_path": "/xFxk4vnirOtUxpOEWgA1MCRfy6J.jpg",
      "original_language": "en",
      "original_title": "Onward",
      "genre_ids": [
        12,
        16,
        35,
        14,
        10751
      ],
      "title": "Onward",
      "vote_average": 7.8,
      "overview": "In a suburban fantasy world, two teenage elf brothers embark on an extraordinary quest to discover if there is still a little magic left out there.",
      "release_date": "2020-02-29"
    },
    {
      "popularity": 187.709,
      "vote_count": 1429,
      "video": false,
      "poster_path": "/y95lQLnuNKdPAzw9F9Ab8kJ80c3.jpg",
      "id": 38700,
      "adult": false,
      "backdrop_path": "/upUy2QhMZEmtypPW3PdieKLAHxh.jpg",
      "original_language": "en",
      "original_title": "Bad Boys for Life",
      "genre_ids": [
        28,
        80,
        53
      ],
      "title": "Bad Boys for Life",
      "vote_average": 6.5,
      "overview": "Marcus and Mike are forced to confront new threats, career changes, and midlife crises as they join the newly created elite team AMMO of the Miami police department to take down the ruthless Armando Armas, the vicious leader of a Miami drug cartel.",
      "release_date": "2020-01-15"
    },
    {
      "popularity": 167.132,
      "vote_count": 544,
      "video": false,
      "poster_path": "/jtrhTYB7xSrJxR1vusu99nvnZ1g.jpg",
      "id": 522627,
      "adult": false,
      "backdrop_path": "/9Qfawg9WT3cSbBXQgDRuWbYS9lj.jpg",
      "original_language": "en",
      "original_title": "The Gentlemen",
      "genre_ids": [
        28,
        35,
        80
      ],
      "title": "The Gentlemen",
      "vote_average": 7.9,
      "overview": "American expat Mickey Pearson has built a highly profitable marijuana empire in London. When word gets out that he’s looking to cash out of the business forever it triggers plots, schemes, bribery and blackmail in an attempt to steal his domain out from under him.",
      "release_date": "2019-12-16"
    },
    {
      "popularity": 157.442,
      "vote_count": 17,
      "video": false,
      "poster_path": "/iaTW57RK87v7ZrGkLKVofNH9YOr.jpg",
      "id": 505951,
      "adult": false,
      "backdrop_path": "/4zJbHJOshnAlQecHY5QjDvZQjeZ.jpg",
      "original_language": "ta",
      "original_title": "கண்ணும் கண்ணும் கொள்ளையடித்தால்",
      "genre_ids": [
        35,
        18,
        10749
      ],
      "title": "Kannum Kannum Kollaiyadithaal",
      "vote_average": 5.8,
      "overview": "Siddarth falls head-over-heels in love with Meera but things take a risky turn when they get into a messy situation with a dangerous man.",
      "release_date": "2020-02-28"
    },
    {
      "popularity": 154.414,
      "vote_count": 6,
      "video": false,
      "poster_path": "/mew5d3ZzFfVxFyPZ8ydJb18UOpr.jpg",
      "id": 625985,
      "adult": false,
      "backdrop_path": "/j4B8G5yKRnTO655uvpQBXt4Ok08.jpg",
      "original_language": "ja",
      "original_title": "仮面ライダージオウNEXT TIME：ゲイツ、マジェスティ",
      "genre_ids": [
        28,
        12,
        878
      ],
      "title": "Kamen Rider Zi-O NEXT TIME: Geiz, Majesty",
      "vote_average": 7,
      "overview": "Geiz, Majesty is the first installment of the Kamen Rider Zi-O NEXT TIME series of V-Cinema films for Kamen Rider Zi-O. It focuses on the character Geiz Myokoin.",
      "release_date": "2020-02-28"
    },
    {
      "popularity": 142.385,
      "vote_count": 3730,
      "video": false,
      "poster_path": "/iZf0KyrE25z1sage4SYFLCCrMi9.jpg",
      "id": 530915,
      "adult": false,
      "backdrop_path": "/cqa3sa4c4jevgnEJwq3CMF8UfTG.jpg",
      "original_language": "en",
      "original_title": "1917",
      "genre_ids": [
        28,
        18,
        53,
        10752
      ],
      "title": "1917",
      "vote_average": 7.9,
      "overview": "At the height of the First World War, two young British soldiers must cross enemy territory and deliver a message that will stop a deadly attack on hundreds of soldiers.",
      "release_date": "2019-12-25"
    },
    {
      "popularity": 132.294,
      "vote_count": 10480,
      "video": false,
      "poster_path": "/udDclJoHjfjb8Ekgsd4FDteOkCU.jpg",
      "id": 475557,
      "adult": false,
      "backdrop_path": "/n6bUvigpRFqSwmPp1m2YADdbRBc.jpg",
      "original_language": "en",
      "original_title": "Joker",
      "genre_ids": [
        80,
        18,
        53
      ],
      "title": "Joker",
      "vote_average": 8.2,
      "overview": "During the 1980s, a failed stand-up comedian is driven insane and turns to a life of crime and chaos in Gotham City while becoming an infamous psychopathic crime figure.",
      "release_date": "2019-10-02"
    },
    {
      "popularity": 124.912,
      "vote_count": 1654,
      "video": false,
      "poster_path": "/aQvJ5WPzZgYVDrxLX4R6cLJCEaQ.jpg",
      "id": 454626,
      "adult": false,
      "backdrop_path": "/stmYfCUGd8Iy6kAMBr6AmWqx8Bq.jpg",
      "original_language": "en",
      "original_title": "Sonic the Hedgehog",
      "genre_ids": [
        28,
        35,
        878,
        10751
      ],
      "title": "Sonic the Hedgehog",
      "vote_average": 7.4,
      "overview": "Based on the global blockbuster videogame franchise from Sega, Sonic the Hedgehog tells the story of the world’s speediest hedgehog as he embraces his new home on Earth. In this live-action adventure comedy, Sonic and his new best friend team up to defend the planet from the evil genius Dr. Robotnik and his plans for world domination.",
      "release_date": "2020-02-12"
    },
    {
      "popularity": 116.849,
      "vote_count": 5699,
      "video": false,
      "poster_path": "/7IiTTgloJzvGI1TAYymCfbfl3vT.jpg",
      "id": 496243,
      "adult": false,
      "backdrop_path": "/TU9NIjwzjoKPwQHoHshkFcQUCG.jpg",
      "original_language": "ko",
      "original_title": "기생충",
      "genre_ids": [
        35,
        18,
        53
      ],
      "title": "Parasite",
      "vote_average": 8.5,
      "overview": "All unemployed, Ki-taek's family takes peculiar interest in the wealthy and glamorous Parks for their livelihood until they get entangled in an unexpected incident.",
      "release_date": "2019-05-30"
    },
    {
      "popularity": 113.26,
      "vote_count": 158,
      "video": false,
      "poster_path": "/rmflsMjk4lxx2foNUtd1OKWv6vB.jpg",
      "id": 514847,
      "adult": false,
      "backdrop_path": "/naXUDz0VGK7aaPlEpsuYW8kNVsr.jpg",
      "original_language": "en",
      "original_title": "The Hunt",
      "genre_ids": [
        28,
        27,
        53
      ],
      "title": "The Hunt",
      "vote_average": 6.3,
      "overview": "Twelve strangers wake up in a clearing. They don't know where they are -- or how they got there. In the shadow of a dark internet conspiracy theory, ruthless elitists gather at a remote location to hunt humans for sport. But their master plan is about to be derailed when one of the hunted, Crystal, turns the tables on her pursuers.",
      "release_date": "2020-03-11"
    },
    {
      "popularity": 103.516,
      "vote_count": 214,
      "video": false,
      "poster_path": "/33VdppGbeNxICrFUtW2WpGHvfYc.jpg",
      "id": 481848,
      "adult": false,
      "backdrop_path": "/yFRpUmsreYO5Bc0HVBTsJsHIIox.jpg",
      "original_language": "en",
      "original_title": "The Call of the Wild",
      "genre_ids": [
        12,
        16,
        18,
        10751
      ],
      "title": "The Call of the Wild",
      "vote_average": 6.3,
      "overview": "Buck is a big-hearted dog whose blissful domestic life is turned upside down when he is suddenly uprooted from his California home and transplanted to the exotic wilds of the Yukon during the Gold Rush of the 1890s. As the newest rookie on a mail delivery dog sled team—and later its leader—Buck experiences the adventure of a lifetime, ultimately finding his true place in the world and becoming his own master.",
      "release_date": "2020-02-19"
    },
    {
      "popularity": 98.647,
      "vote_count": 1535,
      "video": false,
      "poster_path": "/mSmiB8XjUnR1GSIljuCPGsk0cwX.jpg",
      "id": 331482,
      "adult": false,
      "backdrop_path": "/3uTxPIdVEXxHpsHOHdJC24QebBV.jpg",
      "original_language": "en",
      "original_title": "Little Women",
      "genre_ids": [
        18,
        10749
      ],
      "title": "Little Women",
      "vote_average": 8,
      "overview": "Four sisters come of age in America in the aftermath of the Civil War.",
      "release_date": "2019-12-25"
    },
    {
      "popularity": 96.404,
      "vote_count": 45,
      "video": false,
      "poster_path": "/zwgPO5bamUuajIAEc02q9XZ2qhq.jpg",
      "id": 529485,
      "adult": false,
      "backdrop_path": "/5mubFanEHVFJff4jLQH0uIOThMz.jpg",
      "original_language": "en",
      "original_title": "The Way Back",
      "genre_ids": [
        18
      ],
      "title": "The Way Back",
      "vote_average": 6.4,
      "overview": "A former basketball all-star, who has lost his wife and family foundation in a struggle with addiction attempts to regain his soul and salvation by becoming the coach of a disparate ethnically mixed high school basketball team at his alma mater.",
      "release_date": "2020-03-05"
    },
    {
      "popularity": 84.762,
      "vote_count": 62,
      "video": false,
      "poster_path": "/biXzsw22U6vSd0XktmZwAOc4uik.jpg",
      "id": 627725,
      "adult": false,
      "backdrop_path": "/jqz8FwISQfyum47PUqgPTGtmiMk.jpg",
      "original_language": "en",
      "original_title": "The Banker",
      "genre_ids": [
        18
      ],
      "title": "The Banker",
      "vote_average": 7.3,
      "overview": "In the 1960s, two entrepreneurs hatch an ingenious business plan to fight for housing integration—and equal access to the American Dream.",
      "release_date": "2020-03-06"
    },
    {
      "popularity": 80.069,
      "vote_count": 219,
      "video": false,
      "poster_path": "/2kNnf7BwRCEm4bcFkdiE0T4U25s.jpg",
      "id": 457335,
      "adult": false,
      "backdrop_path": "/fssCO59bqU5f0zngeYKex0g1vyb.jpg",
      "original_language": "en",
      "original_title": "Guns Akimbo",
      "genre_ids": [
        28,
        35
      ],
      "title": "Guns Akimbo",
      "vote_average": 6.3,
      "overview": "An ordinary guy suddenly finds himself forced to fight a gladiator-like battle for a dark website that streams the violence for viewers. Miles must fight heavily armed Nix and also save his kidnapped ex-girlfriend.",
      "release_date": "2020-02-27"
    },
    {
      "popularity": 76.43,
      "vote_count": 6,
      "video": false,
      "poster_path": "/7bjTzPQUV2KVI0HdUjf1l8lUoLF.jpg",
      "id": 571265,
      "adult": false,
      "backdrop_path": "/ApywEWLRVaHUY5QX5tUhErBD5m3.jpg",
      "original_language": "ja",
      "original_title": "デジモンアドベンチャー LAST EVOLUTION 絆",
      "genre_ids": [
        28,
        12,
        16,
        53
      ],
      "title": "Digimon Adventure: Last Evolution Kizuna",
      "vote_average": 5.4,
      "overview": "Tai is now a university student, living alone, working hard at school, and working every day, but with his future still undecided. Meanwhile, Matt and others continue to work on Digimon incidents and activities that help people with their partner Digimon. When an unprecedented phenomenon occurs, the DigiDestined discover that when they grow up, their relationship with their partner Digimon will come closer to an end.  As a countdown timer activates on the Digivice, they realize that the more they fight with their partner Digimon, the faster their bond breaks. Will they fight for others and lose their partner? The time to choose and decide is approaching fast. There is a short time before “chosen children” will become adults. This is the last adventure of Tai and Agumon.",
      "release_date": "2020-02-21"
    }
  ],
  "page": 1,
  "total_results": 1076,
  "dates": {
    "maximum": "2020-04-03",
    "minimum": "2020-02-15"
  },
  "total_pages": 54
}
